%YAML 1.1
%TAG !u! tag:unity3d.com,2011:
--- !u!114 &-6001270351578964239
MonoBehaviour:
  m_ObjectHideFlags: 11
  m_CorrespondingSourceObject: {fileID: 0}
  m_PrefabInstance: {fileID: 0}
  m_PrefabAsset: {fileID: 0}
  m_GameObject: {fileID: 0}
  m_Enabled: 1
  m_EditorHideFlags: 0
  m_Script: {fileID: 11500000, guid: d0353a89b1f911e48b9e16bdc9f2e058, type: 3}
  m_Name: 
  m_EditorClassIdentifier: 
  version: 1
--- !u!21 &2100000
Material:
  serializedVersion: 8
  m_ObjectHideFlags: 0
  m_CorrespondingSourceObject: {fileID: 0}
  m_PrefabInstance: {fileID: 0}
  m_PrefabAsset: {fileID: 0}
  m_Name: VolumeFogSRP_FORWARD_URP
  m_Shader: {fileID: 4800000, guid: 124adc93489debb40bc4ac4b24e5bd05, type: 3}
  m_Parent: {fileID: 0}
  m_ModifiedSerializedProperties: 0
  m_ValidKeywords:
  - FOG_EXP2
  m_InvalidKeywords: []
  m_LightmapFlags: 4
  m_EnableInstancingVariants: 0
  m_DoubleSidedGI: 0
  m_CustomRenderQueue: -1
  stringTagMap: {}
  disabledShaderPasses: []
  m_LockedProperties: 
  m_SavedProperties:
    serializedVersion: 3
    m_TexEnvs:
    - Texture2D_212D1414:
        m_Texture: {fileID: 0}
        m_Scale: {x: 1, y: 1}
        m_Offset: {x: 0, y: 0}
    - Texture2D_6D2CA402:
        m_Texture: {fileID: 0}
        m_Scale: {x: 1, y: 1}
        m_Offset: {x: 0, y: 0}
    - _BaseMap:
        m_Texture: {fileID: 0}
        m_Scale: {x: 1, y: 1}
        m_Offset: {x: 0, y: 0}
    - _BumpMap:
        m_Texture: {fileID: 0}
        m_Scale: {x: 1, y: 1}
        m_Offset: {x: 0, y: 0}
    - _ColorBuffer:
        m_Texture: {fileID: 0}
        m_Scale: {x: 1, y: 1}
        m_Offset: {x: 0, y: 0}
    - _EmissionMap:
        m_Texture: {fileID: 0}
        m_Scale: {x: 1, y: 1}
        m_Offset: {x: 0, y: 0}
    - _MainTex:
        m_Texture: {fileID: 0}
        m_Scale: {x: 1, y: 1}
        m_Offset: {x: 0, y: 0}
    - _MetallicGlossMap:
        m_Texture: {fileID: 0}
        m_Scale: {x: 1, y: 1}
        m_Offset: {x: 0, y: 0}
    - _NoiseTex1:
        m_Texture: {fileID: 0}
        m_Scale: {x: 1, y: 1}
        m_Offset: {x: 0, y: 0}
    - _OcclusionMap:
        m_Texture: {fileID: 0}
        m_Scale: {x: 1, y: 1}
        m_Offset: {x: 0, y: 0}
    - _SampleTexture2D_3DCE9C57_Texture:
        m_Texture: {fileID: 0}
        m_Scale: {x: 1, y: 1}
        m_Offset: {x: 0, y: 0}
    - _SampleTexture2D_867AC6D7_Texture:
        m_Texture: {fileID: 0}
        m_Scale: {x: 1, y: 1}
        m_Offset: {x: 0, y: 0}
    - _SampleTexture2D_E7F984EC_Texture:
        m_Texture: {fileID: 0}
        m_Scale: {x: 1, y: 1}
        m_Offset: {x: 0, y: 0}
    - _SpecGlossMap:
        m_Texture: {fileID: 0}
        m_Scale: {x: 1, y: 1}
        m_Offset: {x: 0, y: 0}
    m_Ints: []
    m_Floats:
    - Vector1_1D56E6ED: 2.8
    - Vector1_5F062B86: 0.066
    - Vector1_8C73B3EF: 1
    - Vector1_EE2BE012: 0.91
    - _AlphaClip: 0
    - _Blend: 0.5
    - _Brightness: -0.001
    - _BumpScale: 1
    - _Cull: 2
    - _Cutoff: 0.5
    - _Delta: 0.00096
    - _DeltaX: 0.002
    - _DeltaY: 0.002
    - _DstBlend: 0
    - _EnvironmentReflections: 1
    - _Extinct: 1.64
    - _Extinction: 0
    - _FogHeight: 1111
    - _GlossMapScale: 0
    - _Glossiness: 0
    - _GlossyReflections: 0
    - _HeightFogDropoff: 0.41
    - _LightScatter: 0.533
    - _LightSpread: 4.89
    - _MaxDistance: 10000
    - _Metallic: 0
    - _NoiseExponent: 0.5
    - _OcclusionStrength: 1
    - _Poseterize: 1
    - _PosterizationCount: 5
    - _Presence: 0.1
    - _QueueOffset: 0
    - _Raw: 0
    - _RaySamples: 9
    - _ReceiveShadows: 1
    - _SampleCountA: 21
    - _Scatter: 0.81
    - _Scattering: 1.13
    - _Smoothness: 0.5
    - _SmoothnessTextureChannel: 0
    - _SpecularHighlights: 1
    - _SrcBlend: 1
    - _Surface: 0
    - _TemporalGain: 1
    - _TemporalResponse: 1
    - _WorkflowMode: 1
    - _ZWrite: 1
    - _invertX: 0
    - _visibleLightsCount: 13
    - blendVolumeLighting: 0.06
    - depthDilation: 1
    - lightCount: 3
    - lightsArrayLength: 0
    m_Colors:
    - _BaseColor: {r: 0.5, g: 0.5, b: 0.5, a: 1}
    - _BlurRadius4: {r: 0.078125, g: 0.078125, b: 0, a: 0}
    - _Color: {r: 0.5, g: 0.5, b: 0.5, a: 1}
    - _EmissionColor: {r: 0, g: 0, b: 0, a: 1}
    - _ExtinctColor: {r: 0.23362406, g: 0.34249693, b: 0.3962264, a: 1}
    - _ExtinctionTint: {r: 0.24991101, g: 0.3919544, b: 0.4528302, a: 1}
    - _ScatterColor: {r: 0.369571, g: 0.46975714, b: 0.5188679, a: 1}
    - _ScatteringTint: {r: 0.6981132, g: 0.6735695, b: 0.6553044, a: 1}
    - _SpecColor: {r: 0.19999996, g: 0.19999996, b: 0.19999996, a: 1}
    - _SunColor: {r: 1.15, g: 1.15, b: 1.15, a: 1.15}
    - _SunPosition: {r: -0.80208915, g: 0.16414791, b: 4.1838636, a: 0.75}
    - _SunThreshold: {r: 0.87, g: 0.74, b: 0.65, a: 1}
    - _stepsControl: {r: 0, g: 0, b: 1, a: 1}
    - lightControlA: {r: 0.92, g: 0.3, b: 1, a: 1}
    - lightControlB: {r: 1, g: 1, b: 1, a: 1}
    - lightNoiseControl: {r: 1, g: 0.75, b: 1, a: 1}
    - shadowsControl: {r: 500, g: 1, b: 1, a: 0}
    - volumeSamplingControl: {r: 0.001, g: 1, b: 1, a: 1}
  m_BuildTextureStacks: []
